41.456,1.979
41.32,2.014
41.406,2.14
41.509,1.901
41.354,2.036
41.438,2.003
41.312,2.141
41.336,2.033
41.25,1.826
41.492,1.877
41.327,2.088
41.395,1.96
41.271,1.975
41.324,2.012
41.309,2.02
41.337,2.109
41.272,1.977
41.383,2.052
41.382,2.149
41.348,2.024
41.38,2.04
41.319,2.01
41.369,2.088
41.205,1.682
41.378,2.125
41.397,1.972
41.392,2.034
41.338,2.044
41.306,1.737
41.352,2.138
41.385,2.051
41.384,2.051
41.579,2.014
41.36,1.955
41.358,2.033
41.23,1.726
41.269,1.967
41.4,2.159
41.496,1.928
41.39,1.936
41.406,1.944
41.367,1.8
41.476,2.297
41.455,1.961
41.379,2.041
41.394,2.007
41.364,2.081
41.365,2.083
41.374,2.169
41.413,2.142
41.367,2.134
41.306,1.993
41.392,2.123
41.362,2.124
41.357,2.122
41.386,1.931
41.482,1.914
41.323,2.091
41.393,2.175
41.28,1.978
41.319,2.095
41.316,2.141
41.445,2.174
41.286,1.979
41.294,2.014
41.385,2.189
41.364,2.12
41.374,2.141
41.326,2.151
41.376,2.099
41.418,1.961
41.357,2.098
41.502,2.143
41.38,2.048
41.489,2.137
41.349,2.03
41.488,2.025
41.406,2.029
41.287,2.071
41.312,2.013
41.689,2.408
41.374,2.075
41.353,2.11
41.597,2.185
41.358,2.119
41.375,2.086
41.496,1.929
41.447,1.958
41.429,1.927
41.362,2.083
41.405,2.028
41.353,2.071
41.385,2.048
41.349,2.03
41.376,2.164
41.366,2.088
41.323,2.011
41.249,1.799
41.402,2.027
41.374,2.072
41.412,2.023
41.382,2.082
41.314,2.017
41.366,2.088
41.319,2.018
41.382,1.938
41.39,2.013
41.272,1.986
41.348,2.025
41.416,1.972
41.368,2.111
41.36,2.065
41.485,2.173
41.355,2.067
41.336,2.045
41.522,1.903
41.306,1.993
41.3,2.016
41.369,2.015
41.349,2.032
41.276,1.978
41.368,2.055
41.367,1.894
41.329,2.041
41.288,1.973
41.387,2.044
41.359,2.082
41.318,2.01
41.266,1.972
41.413,2.016
41.34,2.05
41.306,1.993
41.432,2.012
41.35,2.041
41.387,2.043
41.386,2.002
41.435,2.209
41.326,2.095
41.271,1.728
41.332,2.095
41.349,2.028
41.349,1.979
41.369,2.015
41.364,2.114
41.35,2.032
41.418,1.93
41.376,2.121
41.38,2.071
41.406,1.944
41.418,1.934
41.415,1.927
41.348,2.043
41.316,2.008
41.575,1.641
41.612,2.356
41.425,1.779
41.353,2.142
41.217,1.678
41.288,1.995
41.356,2.166
41.34,2.041
41.3,2.004
41.538,1.832
41.535,1.865
41.27,1.976
41.389,1.997
41.417,2.157
41.389,2.158
41.337,1.898
41.379,2.132
41.282,1.985
41.367,2.053
41.531,1.622
41.447,1.974
41.214,1.679
41.329,2.042
41.342,1.975
41.587,2.251
41.263,1.925
41.396,2.01
41.485,1.985
41.378,2.073
41.407,2.154
41.346,1.693
41.398,2.007
41.388,1.941
41.508,1.901
41.358,2.033
41.335,2.038
41.332,2.094
41.391,2.162
41.373,2.119
41.315,2.009
41.288,2.07
41.3,2.002
41.345,2.029
41.388,2.056
41.347,2.132
41.37,1.804
41.51,1.835
41.334,2.035
41.352,2.083
41.434,2.184
41.316,2.024
41.28,1.969
41.283,1.982
41.311,2.006
41.489,2.128
41.42,1.922
41.316,2.137
41.333,2.044
41.355,1.979
41.348,2.04
41.313,2.025
41.538,1.862
41.38,2.04
41.364,2.122
41.364,2.095
41.55,1.892
41.324,2.093
41.286,1.983
41.482,1.914
41.319,2.01
41.358,2.095
41.369,2.017
41.267,2.017
41.347,2.144
41.545,1.863
41.339,1.997
41.36,2.075
41.408,2.025
41.266,1.941
41.359,2.066
41.376,2.05
41.547,1.896
41.335,2.035
41.387,2.076
41.423,1.916
41.375,2.102
41.39,2.182
41.339,1.631
41.324,2.103
41.266,1.936
41.302,2.002
41.41,1.934
41.665,2.255
41.456,1.979
41.455,1.978
41.561,1.824
41.368,2.075
41.536,2.08
41.371,2.086
41.334,2.035
41.398,1.99
41.336,2.048
41.371,2.075
41.354,2.116
41.368,2.096
41.331,2.089
41.383,2.012
41.359,2.11
41.54,1.892
41.343,2.043
41.355,2.092
41.372,2.096
41.333,2.1
41.358,2.101
41.543,2.183
41.426,2.163
41.372,2.145
41.836,1.751
41.363,2.027
41.314,2.007
41.364,2.131
41.361,2.064
41.429,2.229
41.47,1.822
41.354,2.074
41.565,1.83
41.358,2.092
41.419,1.924
41.48,1.882
41.289,1.765
41.287,1.987
41.386,2.048
41.376,2.149
41.35,2.025
41.535,1.821
41.496,1.928
41.478,1.994
41.518,2.16
41.345,2.04
41.379,1.993
41.192,1.616
41.291,1.984
41.364,2.057
41.404,1.974
41.385,2.055
41.42,2.189
41.279,1.98
41.352,2.068
41.371,2.078
41.32,2.003
41.313,2.006
41.539,1.863
41.515,2.139
41.372,2.078
41.547,2.219
41.354,1.953
41.35,2.031
41.457,1.967
41.378,2.047
41.398,2.159
41.274,1.973
41.376,2.104
41.359,2.002
41.363,2.082
41.415,2.016
41.501,1.887
41.321,2.085
41.434,1.955
41.319,2.027
41.359,2.062
41.269,1.937
41.452,1.962
41.418,1.954
41.282,1.97
41.339,2.03
41.36,2.124
41.287,2.054
41.337,1.999
41.273,1.971
41.39,2.001
41.317,2.011
41.442,2.17
41.393,1.982
41.494,1.907
41.365,2.077
41.233,1.639
41.496,1.929
41.485,2.173
41.362,2.083
41.282,1.963
41.343,1.705
41.288,2.071
41.562,1.807
41.397,2.16
41.302,2.002
41.323,2.088
41.266,1.941
41.317,2.001
41.291,2.01
41.368,2.024
41.427,1.923
41.408,2.002
41.35,2.025
41.327,2.119
41.371,1.945
41.312,1.992
41.369,2.133
41.423,1.944
41.353,2.067
41.311,2.008
41.56,2.08
41.333,2.1
41.35,2.028
41.514,2.202
41.273,1.971
41.369,2.13
41.383,1.93
41.416,2.142
41.443,2.18
41.317,2.027
41.291,1.983
41.615,2.192
41.391,2.114
41.58,2.003
41.371,1.945
41.619,2.178
41.545,1.951
41.43,1.914
41.456,1.958
41.388,2.049
41.354,1.956
41.283,1.98
41.521,1.9
41.378,2.089
41.202,1.64
41.326,2.15
41.455,1.965
41.36,2.065
41.371,1.945
41.338,2.043
41.307,1.997
41.348,2.096
41.348,2.109
41.382,2.163
41.392,2.151
41.265,1.947
41.306,1.993
41.279,1.984
41.497,1.675
41.406,2.017
41.345,2.038
41.309,1.992
41.44,2.051
41.69,2.371
41.348,2.109
41.343,2.041
41.241,1.802
41.354,1.96
41.536,2.08
41.192,1.608
41.403,2.002
41.372,2.159
41.3,2.002
41.486,2.299
